,,iri:::::::::ii;rrrrrrrri;iiiii
.,,ir:::::::::;i;Xrrrrrrri;;riii
.,,,,i:::::::::,;rXrrrrrii;riiii
,,,,,,::::::::,,;iXXsrrrirrrriii
,,,,,:::::::::,,;iXXXsrrrrrrrrii
,,,,,::::::::,,,:irXXXrrrrrrrri;
,,,,::::::::,,,::iiXXXXsrrrrrri;
,,,,::::::::,,:::iiXXXXXrrrriii;
,,,::::::::,,:::::iiXXXXsrriii;;
,,,:::::::,,::::::iiXXXXXriii;;,
,,::::::::,::::::,iiXXXXXriii;,.
,,::::,::,::::::,:;irXXXXsri;...
::::::::,::::;;::;;iiAXXXssi....
:::::::::::::;:;;;;iiAAXXsss....
:::::::::::;;,;;rr:iirAAXXssr...
::::::::::;;,;;;;r,:iiAAX;ssr...
:::::::::;:,;;;::s,,iiAAAXsrsr..
:::::::::;,;;;;;:si,irsAAAXssr..
r;;:::;;;,;;;;;;;rs:,rr2AA;ssr..
iiri;;;;,;;;;;;;:;iA;rr2AAAXXss.
iiii;;;,;;;;;;; ;irAAsrr2AAXXss.
iiii;;,;;;;;:; iiirr2:rr2AA;XXsi
;;ii;,;;;;;:. ii,iirA;rrA2AAXXss
iii;;;;;;;,..i;:,iir2srrr2AAXXss
iiii;;;;;,.:;::;;iirs2:riAAArXXs
iii;;:;;:.;;;:.,i;isrA;rrAAAAXXX
;ii;;:;;:.;;;;:;i:;iiAirriAAAAXX
;ii;::;:..;;,;::;,:iiAA:riAAAAXX
;ii;::::..:;.:;;;:i;AiA:riAAAAXX
iii;:::::.,;..;::;;;;rA;rirAAXXX
ii;;:::::: ;  ;:.;;;;XiA:iiAAXXX
;;;;::::: .;..;:;;;;:irA,iiAXXXX
