... .............     . . .   ...........                                       
.................             ..   .. .                                         
.................                                                               
,,................                                                              
..................                                                              
...................                                                             
.......... .........                                                            
......... . ........                    .                                       
.........        .. .                                                           
,........                    .... .                                             
.........               .... ..............                                     
,,,.......        ..............................                                
,,,..,....    .............,,,,,,,,,,,,,.......... .                            
,,,,......   ...........,,,,,,::::::::::,,,,,,,.,......                         
,,,,....... .......,,,,,,:::;;;;;;;;;;;::,,,,,,,........                        
,,,,......  ......,,,,,::;;irrsssssssrii;;:::::::::::,,..                       
,,,,,....  ......,,,,,::;irA222222222222AA2222222A2X2i,,..                      
,,,,,............,,,,::;irX22222222222222X2A2AA2X222A2i,..                      
:,,,,... ......,,,,,,::;irX22222222222222X22A2X2A2222Xs:...                     
:,,,,...........,,,,,,:;irX22222222222222s2222A2222AA2X,,..                     
:,,,,... .......,,,,,,::;is22222222222222rsXssXsXXsXssX,,..                     
:,,,..  .........,..,,,,:;;iirrrrriiii;;;:::::::::::::,,,..                   ;,
:,,,..  .........,..,,,,:::::::;::::::::::,,,,,,,:::,,,,...........          :,,
,,,,.. ............,,,,,::::::::::::::::::::::::::::::,,,,,,,,,,,,,,,,,,... ,,..
,,,...............,,irrsssssssssssssssssssssrsssssXssssrrsXXXXXXXXXXsssr::;,,...
,,,..............,,:;issrrsXsssXssXAXsXAXsXAAXXAAsAAAXss22A2222222222222s:,,,,..
,,,..............,;s;sAAX222A22222222AXAAXXXAXXXAAXXAAXsX222222222222222:,,,,,,,
,,.. .........,,,,;rirrs222AXA22XXA2AXXX2AXXXAAXXX22AXXsA222222222222A;:::,:,,,.
,.............,.,,,:;iiA222sA22Ass2AAXsssXXsssXXXXsXXXsss222222222222:::::,,r   
,.............,.,:::;s222Xss222AXX2222AXXAAAXsXA22AAXsrssXA22222222;;;;;:::,.   
,............,.,,ir;i222222222222222222XsXXAAXssXXAAXssrsA22222A22;;iii;::,:;   
............,,,,,:i;r2222222222222222222sssXXAAsssX22XsrsssXA222r;irii;::::::   
............,..,,,:;rsA22222222222222222ssssX222X2sXAXsrrrXXXXX;;rii;;::;::::,. 
...........,,,.,;:;irX22222222222222222Asssss22222222ssrr:,,,,.........,,,,,,, ,
...........,.,,,ir;i22222222222222222222Xssrrss2X2XXAXsri...       ,,,..,,,,.   
..............,,,i;rrsssssssssssssssssssrrrrrrrrrrssssrri..       . ,....       
...........,..,..,,,,:::::::::::::,,,,,,22AXXsrrrrrrrXsrr...,,   .,,,,.,     ,  
..........,... ........,.,...,,................... .... :.. .,    .,:;.         
............    ................. .                               ..            
............     ..  . . .     .                                  .             
